0.010814 0.386849 
0.024871 0.193496 
0.012947 0.446807 
0.009832 0.477607 
0.024979 0.141079 
0.012354 0.436309 
0.019792 0.195255 
0.010946 0.460186 
0.010234 0.384635 
0.016859 0.239691 
0.027646 0.129835 
0.023331 0.227408 
0.018209 0.212770 
0.021116 0.215709 
0.012535 0.104942 
0.009794 0.489400 
0.018051 0.178279 
0.010430 0.480504 
0.017926 0.279452 
0.030770 0.172069 
0.007975 0.315171 
0.011248 0.413096 
0.011542 0.442355 
0.012598 0.481363 
0.018328 0.335558 
0.011550 0.320979 
0.017746 0.264882 
0.015357 0.199023 
0.012670 0.395244 
0.025335 0.169619 
0.019334 0.480239 
0.006156 0.334275 
0.016015 0.250444 
0.009730 0.365198 
0.034340 0.149960 
0.020431 0.196978 
0.007975 0.315171 
0.008820 0.364430 
0.009953 0.300981 
0.007851 0.485204 
0.011524 0.287782 
0.011970 0.340992 
0.018024 0.451392 
0.031592 0.199416 
0.030414 0.165310 
0.013309 0.341370 
0.039364 0.184611 
0.013374 0.486126 
0.012598 0.481363 
0.012786 0.255074 
0.016396 0.105347 
0.008778 0.485695 
0.025828 0.167589 
0.014390 0.472362 
0.010757 0.233391 
0.017868 0.230462 
0.027969 0.201089 
0.019730 0.237943 
0.010660 0.404028 
0.013348 0.295842 
0.017972 0.498851 
0.018686 0.176292 
0.016502 0.168463 
0.009339 0.320142 
0.009953 0.300981 
0.013864 0.311570 
0.024070 0.211507 
0.020124 0.184649 
0.029392 0.158951 
0.015841 0.236819 
0.005406 0.283193 
0.027411 0.114413 
0.013216 0.450048 
0.009573 0.258302 
0.018742 0.217265 
0.012542 0.362043 
0.020319 0.163387 
0.012879 0.243819 
0.020966 0.169862 
0.027018 0.186640 
0.020392 0.229609 
0.011945 0.444841 
0.019102 0.255446 
0.018654 0.239945 
0.025349 0.154668 
0.014922 0.351580 
0.024506 0.126133 
0.007318 0.293183 
0.011524 0.287782 
0.013864 0.311570
0.009966 0.325628 
0.011255 0.436265 
0.010430 0.480504 
0.010516 0.288109 
0.015195 0.465809 
0.009342 0.400955 
0.007907 0.339163 
0.012542 0.362043 
0.010946 0.460186 
0.015208 0.383773 
0.017963 0.159950 
0.009278 0.354169 
0.011424 0.292389 
0.010814 0.386849 
0.013309 0.341370 
0.011891 0.330721 
0.010585 0.323739 
0.046647 0.143533 
0.017184 0.434074 
0.021543 0.116428 
0.020141 0.327928 
0.025764 0.198280 
0.023548 0.111830 
0.020430 0.393566 
0.009584 0.385592 
0.006078 0.337235 
0.013801 0.265282 
0.012997 0.266851 
0.022843 0.132023 
0.005406 0.283193 
0.014811 0.391919 
0.039240 0.183502 
0.016914 0.239290 
0.024420 0.244873 
0.017184 0.434074 
0.011730 0.442914 
0.010946 0.460186 
0.014287 0.362656 
0.013461 0.394181 
0.012997 0.266851 
0.022450 0.230332 
0.016914 0.239290 
0.015262 0.304972 
0.006191 0.299479 
0.026231 0.195129 
0.006191 0.299479 
0.015813 0.397717 
0.007805 0.368057 
0.008823 0.422157 
0.009248 0.422670 
0.010430 0.345972 
0.015357 0.199023 
0.019668 0.422740 
0.018122 0.192305 
0.015262 0.304972 
0.011230 0.247476 
0.010688 0.396028 
0.018983 0.185818 
0.017067 0.311980 
0.008757 0.388880 
0.011992 0.318013 
0.011424 0.292389 
0.012397 0.435473 
0.020853 0.229776 
0.010952 0.429051 
0.022969 0.138671 
0.019048 0.212047 
0.015295 0.493112 
0.026320 0.133828 
0.011177 0.374242 
0.011477 0.451328 
0.011486 0.310303 
0.007854 0.343775 
0.018844 0.454352 
0.006420 0.377153 
0.009247 0.351578 
0.011568 0.324069 
0.010642 0.300837 
0.015504 0.292735 
0.012584 0.385490 
0.009587 0.386312 
0.012678 0.253566 
0.028885 0.156381 
0.017060 0.469482 
0.016259 0.244112 
0.016429 0.131981 
0.011504 0.439280 
0.023600 0.163622 
0.022836 0.131287 
0.011485 0.493410 
0.012204 0.254849 
0.015225 0.274387 
0.024979 0.141079 
0.010172 0.340425 
0.014805 0.127865 
0.015295 0.493112 
0.011724 0.320371 
0.016817 0.275300 
0.014006 0.409094 
0.028186 0.184424 
0.017047 0.486979 
0.012882 0.196130 
0.008495 0.314138 
0.009278 0.354169 
0.019102 0.255446 
0.010814 0.386849 
0.018328 0.335558 
0.022646 0.200792 
0.023016 0.235584 
0.005964 0.368149 
0.017595 0.251115 
0.008789 0.328476 
0.012373 0.371908 
0.008651 0.348334 
0.033786 0.170411 
0.011992 0.318013 
0.016537 0.245478 
0.014645 0.472798 
0.015426 0.137495 
0.008860 0.494396 
0.009293 0.312298 
0.032938 0.157978 
0.018908 0.346875 
0.028944 0.115019 
0.021045 0.138624 
0.006859 0.450233 
0.008903 0.435199 
0.012553 0.237435 
0.007308 0.481625 
0.009027 0.351224 
0.021581 0.174313 
0.008923 0.333162 
0.027516 0.114608 
0.007266 0.426100 
0.030436 0.148141 
0.005973 0.348721 
0.023331 0.227408 
0.008151 0.438813 
0.009293 0.312298 
0.018051 0.178279 
0.017235 0.255394 
0.016551 0.271657 
0.013118 0.384808 
0.028186 0.184424 
0.008589 0.371045 
0.007266 0.426100 
0.006845 0.380795 
0.021480 0.105254 
0.017839 0.117511 
0.011008 0.458149 
0.026588 0.162656 
0.011302 0.304747 
0.025349 0.154668 
0.018907 0.202976 
0.027411 0.114413 
0.011177 0.374242 
0.011230 0.247476 
0.012147 0.440704 
0.019791 0.263224 
0.011875 0.390577 
0.019102 0.255446 
0.024443 0.138795 
0.019791 0.263224 
0.009156 0.339799 
0.018118 0.281348 
0.008013 0.339038 
0.010074 0.427582 
0.015721 0.246239 
0.030412 0.157478 
0.020319 0.163387 
0.019071 0.237694 
0.010946 0.340242 
0.024443 0.138795 
0.011177 0.374242 
0.023943 0.233584 
0.015501 0.427053 
0.031889 0.130084 
0.017331 0.256890 
0.006270 0.352608 
0.024443 0.138795 
0.013053 0.119304 
0.014437 0.128377 
0.025333 0.140681 
0.010946 0.340242 
0.018972 0.217603 
0.008769 0.376591 
0.023136 0.188744 
0.013789 0.328927 
0.010946 0.340242 
0.012269 0.473399 
0.012777 0.379410 
0.018309 0.257175 
0.018972 0.217603 
0.010946 0.340242 
0.008980 0.484827 
0.031566 0.109580 
0.006944 0.337490 
0.016718 0.482525 
0.008412 0.341423 
0.020577 0.247838 
0.011940 0.445818 
0.009433 0.382649 
0.011163 0.293343 
0.022151 0.154533 
0.011359 0.100222 
0.011940 0.445818 
0.024721 0.131080 
0.013643 0.446948 
0.020577 0.247838 
0.007970 0.376818 
0.015749 0.251648 
0.022151 0.154533 
0.014286 0.108501 
0.013080 0.486385 
0.020577 0.247838 
0.022151 0.154533 
0.015295 0.493112 
0.007839 0.421673 
0.008908 0.222853 
0.012665 0.213297 
0.013080 0.486385 
0.014219 0.411236 
0.010570 0.477917 
0.033063 0.156211 
0.008908 0.222853 
0.009077 0.429781 
0.013080 0.486385 
0.006263 0.470850 
0.008908 0.222853 
0.010683 0.412378 
0.010161 0.436667 
0.010161 0.436667 
0.028186 0.184424 
0.025020 0.138204 
0.023212 0.166052 
0.010442 0.417158 
0.016620 0.450241 
0.012229 0.194890 
0.024327 0.125239 
0.008850 0.364754 
0.008757 0.388880 
0.017991 0.144598 
0.021321 0.120499 
0.011175 0.486065 
0.012837 0.137059 
0.017991 0.144598 
0.008850 0.364754 
0.009429 0.362061 
0.019792 0.193742 
0.015813 0.397717 
0.013928 0.491364 
0.016620 0.450241 
0.020076 0.254651 
0.020896 0.116184 
0.006388 0.444624 
0.028638 0.201084 
0.008850 0.364754 
0.020076 0.254651 
0.019792 0.193742 
0.007835 0.337481 
0.012425 0.224066 
0.018024 0.451392 
0.019792 0.193742 
0.022969 0.138671 
0.013818 0.277988 
0.031127 0.162449 
0.010058 0.425074 
0.019792 0.193742 
0.014966 0.277470 
0.005807 0.324341 
0.012425 0.224066 
0.020464 0.175468 
0.030813 0.245481 
0.013818 0.277988 
0.012425 0.224066 
0.021672 0.187000 
0.012128 0.213829 
0.005807 0.324341 
0.013818 0.277988 
0.019792 0.195255 
0.026345 0.111716 
0.016225 0.343188 
0.005807 0.324341 
0.013818 0.277988 
0.007839 0.421673 
0.022150 0.169743 
0.011752 0.402628 
0.014609 0.237646 
0.005807 0.324341 
0.010522 0.404185 
0.014614 0.306046 
0.016225 0.343188 
0.007839 0.421673 
0.009119 0.392349 
0.009027 0.351224 
0.007839 0.421673 
0.007839 0.421673 
0.010606 0.411651 
0.007379 0.399573 
0.019481 0.279713 
0.026414 0.213853 
0.007308 0.481625 
0.011249 0.437174 
0.005406 0.283193 
0.015357 0.199023 
0.025468 0.247616 
0.018034 0.218067 
0.012103 0.421841 
0.019481 0.279713 
0.028186 0.184424 
0.013877 0.299563 
0.013182 0.245194 
0.011419 0.284472 
0.029923 0.125062 
0.006980 0.468138 
0.021581 0.174313 
0.025710 0.121575 
0.009996 0.486589 
0.012103 0.421841 
0.009746 0.496828 
0.015561 0.175322 
0.014609 0.237646 
0.010191 0.427945 
0.026708 0.137375 
0.019531 0.231790 
0.011419 0.284472 
0.013591 0.320418 
0.013643 0.446948 
0.028438 0.211593 
0.013392 0.393043 
0.012229 0.194890 
0.010606 0.411651 
0.030412 0.157478 
0.011419 0.284472 
0.012923 0.377583 
0.012928 0.277305 
0.023282 0.190578 
0.013643 0.446948 
0.009247 0.351578 
0.010606 0.411651 
0.007790 0.471945 
0.011932 0.415512 
0.009235 0.485536 
0.022951 0.134402 
0.010777 0.429129 
0.004975 0.470219 
0.020807 0.298668 
0.014401 0.269969 
0.011419 0.284472 
0.008036 0.432290 
0.023093 0.270772 
0.010442 0.417158 
0.008769 0.376591 
0.012678 0.253566 
0.021847 0.156523 
0.020392 0.229609 
0.011565 0.417764 
0.012601 0.229531 
0.012928 0.277305 
0.006270 0.352608 
0.012091 0.284866 
0.008860 0.494396 
0.015564 0.397485 
0.020403 0.196699 
0.018654 0.239945 
0.010525 0.281163 
0.033063 0.156211 
0.015790 0.436281 
0.008769 0.376591 
0.024077 0.200383 
0.007584 0.422573 
0.014719 0.126252 
0.024394 0.177238 
0.015561 0.175322 
0.023093 0.270772 
0.008769 0.376591 
0.022560 0.257896 
0.012678 0.253566 
0.009399 0.342233 
0.015561 0.175322 
0.011084 0.492776 
0.032938 0.157978 
0.025828 0.167589 
0.004975 0.470219 
0.011249 0.437174 
0.021116 0.215709 
0.009295 0.430299 
0.009587 0.386312 
0.013039 0.203883 
0.018654 0.239945 
0.014719 0.126252 
0.006270 0.352608 
0.012853 0.308712 
0.010660 0.404028 
0.009295 0.430299 
0.013039 0.203883 
0.018654 0.239945 
0.011175 0.486065 
0.013776 0.144935 
0.012350 0.420701 
0.030107 0.136147 
0.007943 0.458151 
0.008627 0.104730 
0.010814 0.386849 
0.018654 0.239945 
0.014719 0.126252 
0.014063 0.354389 
0.024365 0.172715 
0.018736 0.384671 
0.011693 0.341471 
0.020147 0.227218 
0.015561 0.175322 
0.006156 0.334275 
0.018654 0.239945 
0.009278 0.354169 
0.007318 0.293183 
0.010922 0.252134 
0.023943 0.233584 
0.015795 0.328778 
0.020602 0.176055 
0.015477 0.405280 
0.018654 0.239945 
0.014719 0.126252 
0.022862 0.149204 
0.013085 0.325650 
0.008720 0.474754 
0.011248 0.413096 
0.008980 0.484827 
0.011084 0.259086 
0.018654 0.239945 
0.011175 0.486065 
0.014006 0.409094 
0.016429 0.131981 
0.027336 0.204514 
0.011651 0.379950 
0.010660 0.404028 
0.010755 0.482580 
0.007318 0.293183 
0.026547 0.144775 
0.025595 0.130037 
0.008589 0.371045 
0.011651 0.379950 
0.015796 0.323525 
0.016562 0.396016 
0.018456 0.416276 
0.018631 0.123398 
0.011565 0.417764 
0.020602 0.176055 
0.010267 0.351180 
0.011703 0.489804 
0.014063 0.354389 
0.012229 0.194890 
0.005547 0.345567 
0.025595 0.130037 
0.019102 0.255446 
0.018631 0.123398 
0.010703 0.297849 
0.020602 0.176055 
0.010011 0.417399 
0.013734 0.364218 
0.013085 0.325650 
0.009744 0.385759 
0.017068 0.121030 
0.025595 0.130037 
0.008925 0.448480 
0.015790 0.436281 
0.007318 0.293183 
0.009946 0.442421 
0.011416 0.399380 
0.011651 0.379950 
0.011453 0.373165 
0.025595 0.130037 
0.012601 0.229531 
0.015910 0.115363 
0.013126 0.266927 
0.010011 0.417399 
0.007437 0.325286 
0.027504 0.176856 
0.012508 0.385085 
0.010315 0.321949 
0.025595 0.130037 
0.007061 0.367358 
0.007318 0.293183 
0.024596 0.136646 
0.011176 0.404158 
0.012354 0.436309 
0.011249 0.355829 
0.022951 0.134402 
0.015555 0.488768 
0.025595 0.130037 
0.027768 0.120101 
0.017023 0.202264 
0.019984 0.197063 
0.012560 0.481113 
0.015504 0.292735 
0.020319 0.163387 
0.026781 0.156811 
0.013039 0.203883 
0.010757 0.233391 
0.025595 0.130037 
0.017059 0.112968 
0.015262 0.304972 
0.019984 0.197063 
0.009399 0.342233 
0.010011 0.417399 
0.024596 0.136646 
0.021464 0.203394 
0.025595 0.130037 
0.012425 0.224066 
0.012947 0.446807 
0.017963 0.159950 
0.012251 0.392728 
0.019792 0.195255 
0.010011 0.417399 
0.018328 0.335558 
0.024596 0.136646 
0.021547 0.148307 
0.014241 0.453856 
0.010161 0.436667 
0.031127 0.162449 
0.011359 0.100222 
0.012815 0.436587 
0.010011 0.417399 
0.015262 0.304972 
0.020966 0.169862 
0.018328 0.335558 
0.005744 0.441947 
0.022298 0.263263 
0.019984 0.197063 
0.011563 0.309669 
0.010011 0.417399 
0.011730 0.442914 
0.018328 0.335558 
0.008765 0.103673 
0.012269 0.473399 
0.007744 0.450063 
0.012425 0.224066 
0.019668 0.422740 
0.019984 0.197063 
0.008224 0.101094 
0.024596 0.136646 
0.019481 0.279713 
0.028186 0.184424 
0.013591 0.495584 
0.015477 0.405280 
0.014799 0.129254 
0.011693 0.341471 
0.020853 0.229776 
0.010814 0.386849 
0.005695 0.431199 
0.013748 0.448851 
0.031127 0.162449 
0.008769 0.376591 
0.014924 0.494340 
0.010946 0.340242 
0.014350 0.455835 
0.017047 0.486979 
0.011248 0.413096 
0.018466 0.141830 
0.009101 0.369574 
0.011693 0.341471 
0.010606 0.411651 
0.016947 0.380741 
0.013748 0.448851 
0.027044 0.220178 
0.021547 0.148307 
0.013801 0.265282 
0.023342 0.193130 
0.023049 0.224950 
0.012233 0.384384 
0.013748 0.448851 
0.024333 0.203187 
0.013133 0.265097 
0.024070 0.211507 
0.010172 0.340425 
0.008589 0.371045 
0.012233 0.384384 
0.013748 0.448851 
0.012508 0.385085 
0.013088 0.316076 
0.013748 0.448851 
0.019481 0.279713 
0.014565 0.270961 
0.017150 0.264660 
0.010688 0.396028 
0.013748 0.448851 
0.011565 0.319141 
0.013764 0.451130 
0.011891 0.330721 
0.010688 0.396028 
0.016947 0.380741 
0.005964 0.368149 
0.013748 0.448851 
0.019668 0.422740 
0.016259 0.244112 
0.010129 0.304952 
0.014219 0.411236 
0.009194 0.459195 
0.006191 0.299479 
0.020076 0.254651 
0.006078 0.337235 
0.033354 0.130812 
0.018686 0.176292 
0.015629 0.107006 
0.033354 0.130812 
0.016642 0.259224 
0.009223 0.383134 
0.033354 0.130812 
0.018631 0.123398 
0.012425 0.224066 
0.015749 0.251648 
0.003896 0.381698 
0.012425 0.224066 
0.006078 0.337235 
0.012425 0.224066 
0.012425 0.224066 
0.021593 0.175848 
0.012425 0.224066 
0.008923 0.333162 
0.019792 0.195255 
0.016817 0.275300 
0.009974 0.424717 
0.014066 0.499314 
0.012425 0.224066 
0.011504 0.439280 
0.014308 0.485896 
0.005847 0.425145 
0.012232 0.259353 
0.012425 0.224066 
0.011230 0.247476 
0.008128 0.373334 
0.015522 0.218005 
0.010207 0.344249 
0.023342 0.193130 
0.006366 0.460615 
0.009832 0.477607 
0.028539 0.159413 
0.010572 0.420340 
0.016255 0.230504 
0.014327 0.389794 
0.030107 0.136147 
0.012251 0.392728 
0.019866 0.172779 
0.010603 0.457785 
0.008765 0.103673 
0.028567 0.242048 
0.012442 0.443139 
0.011821 0.435327 
0.011177 0.374242 
0.019048 0.212047 
0.012934 0.306787 
0.010952 0.429051 
0.032938 0.157978 
0.012085 0.296649 
0.011249 0.355829 
0.010642 0.300837 
0.024708 0.118626 
0.019914 0.163050 
0.012260 0.394311 
0.011915 0.224352 
0.015262 0.304972 
0.022951 0.134402 
0.013748 0.448851 
0.012174 0.478329 
0.022560 0.257896 
0.028438 0.211593 
0.020076 0.254651 
0.014437 0.128377 
0.031592 0.199416 
0.012233 0.384384 
0.015657 0.445545 
0.019251 0.108759 
0.012085 0.296649 
0.009342 0.400955 
0.010189 0.321987 
0.011875 0.390577 
0.009285 0.349393 
0.008065 0.459350 
0.028944 0.115019 
0.022889 0.160199 
0.019704 0.263667 
0.021672 0.187000 
0.011571 0.269473 
0.034818 0.159308 
0.016255 0.230504 
0.012147 0.440704 
0.012770 0.241935 
0.007625 0.449775 
0.010511 0.425742 
0.019730 0.237943 
0.013309 0.341370 
0.019102 0.255446 
0.009339 0.320142 
0.022843 0.132023 
0.008789 0.328476 
0.014355 0.382494 
0.010703 0.297849 
0.011992 0.318013 
0.011935 0.274896 
0.018120 0.266045 
0.011066 0.409770 
0.008778 0.485695 
0.028944 0.115019 
0.010572 0.420340 
0.012542 0.362043 
0.021737 0.160747 
0.014280 0.440708 
0.013496 0.476559 
0.010282 0.439424 
0.012538 0.250089 
0.021395 0.271124 
0.015032 0.302908 
0.026134 0.198813 
0.012665 0.213297 
0.010688 0.396028 
0.013801 0.265282 
0.014864 0.113615 
0.013734 0.364218 
0.019334 0.480239 
0.021737 0.160747 
0.022862 0.149204 
0.014347 0.288938 
0.010575 0.485491 
0.015629 0.107006 
0.028944 0.115019 
0.019730 0.237943 
0.019131 0.362255 
0.039364 0.184611 
0.014302 0.337190 
0.017220 0.309693 
0.008332 0.421016 
0.017543 0.496925 
0.019531 0.231790 
0.019205 0.197200 
0.026623 0.132415 
0.023282 0.190578 
0.013808 0.358734 
0.019071 0.237694 
0.019071 0.237694 
0.010148 0.479229 
0.015531 0.317853 
0.005973 0.348721 
0.018972 0.217603 
0.009584 0.385592 
0.007340 0.442963 
0.015228 0.452871 
0.016537 0.245478 
0.007452 0.445845 
0.013046 0.478078 
0.010687 0.285667 
0.019131 0.362255 
0.013928 0.491364 
0.010946 0.460186 
0.017493 0.371011 
0.009257 0.283826 
0.008757 0.388880 
0.027646 0.129835 
0.028944 0.115019 
0.016713 0.109607 
0.011419 0.284472 
0.008923 0.333162 
0.014308 0.279937 
0.011062 0.395336 
0.007938 0.494613 
0.028885 0.156381 
0.017839 0.117511 
0.010820 0.469010 
0.020464 0.175468 
0.010516 0.288109 
0.011084 0.492776 
0.014777 0.283796 
0.010848 0.304327 
0.023548 0.111830 
0.023212 0.166052 
0.019697 0.399157 
0.008823 0.422157 
0.035258 0.212313 
0.027450 0.178045 
0.014063 0.354389 
0.021953 0.141424 
0.007220 0.413571 
0.009194 0.459195 
0.011477 0.451328 
0.021045 0.138624 
0.021213 0.204510 
0.010118 0.103614 
0.013474 0.106711 
0.019730 0.237943 
0.007418 0.486082 
0.026588 0.162656 
0.017972 0.498851 
0.009001 0.384303 
0.008036 0.432290 
0.015721 0.246239 
0.012448 0.457354 
0.012798 0.242481 
0.023743 0.240578 
0.015176 0.100215 
0.020718 0.204125 
0.009342 0.400955 
0.011546 0.372945 
0.011542 0.442355 
0.024506 0.126133 
0.019205 0.197200 
0.009223 0.383134 
0.020788 0.313194 
0.012478 0.217774 
0.007437 0.325286 
0.014777 0.283796 
0.012997 0.266851 
0.020147 0.227218 
0.023865 0.162985 
0.015556 0.399165 
0.015359 0.407153 
0.005406 0.283193 
0.010584 0.360323 
0.010118 0.103614 
0.025595 0.130037 
0.011175 0.486065 
0.011752 0.402628 
0.015629 0.107006 
0.015477 0.405280 
0.033572 0.137859 
0.011230 0.247476 
0.018122 0.192305 
0.016244 0.388895 
0.007790 0.471945 
0.006890 0.304487 
0.021021 0.160988 
0.023618 0.125966 
0.010693 0.380851 
0.020426 0.182715 
0.012670 0.395244 
0.007308 0.481625 
0.013808 0.358734 
0.010028 0.443145 
0.007418 0.486082 
0.027018 0.186640 
0.009278 0.354169 
0.011047 0.352311 
0.010974 0.416934 
0.016225 0.343188 
0.009247 0.351578 
0.009278 0.354169 
0.008765 0.103673 
0.011066 0.409770 
0.007975 0.315171 
0.020403 0.196699 
0.012508 0.385085 
0.011597 0.462759 
0.009582 0.316887 
0.007665 0.433434 
0.010642 0.300837 
0.004975 0.470219 
0.009055 0.456913 
0.018815 0.225165 
0.012080 0.276252 
0.014355 0.382494 
0.013801 0.265282 
0.014319 0.325705 
0.018983 0.185818 
0.010074 0.427582 
0.021304 0.166296 
0.020392 0.229609 
0.010758 0.299398 
0.010442 0.417158 
0.009342 0.400955 
0.022206 0.167452 
0.014417 0.339201 
0.024107 0.177237 
0.023282 0.190578 
0.016259 0.244112 
0.015994 0.472015 
0.007946 0.413364 
0.034340 0.149960 
0.009235 0.485536 
0.011062 0.395336 
0.023923 0.120398 
0.012174 0.478329 
0.016225 0.343188 
0.012786 0.255074 
0.016886 0.243376 
0.009953 0.300981 
0.010516 0.288109 
0.012174 0.478329 
0.012260 0.394311 
0.009499 0.416464 
0.012786 0.255074 
0.016004 0.288826 
0.026585 0.228381 
0.025134 0.190790 
0.012174 0.478329 
0.024107 0.177237 
0.022646 0.200792 
0.019368 0.313247 
0.027498 0.169863 
0.025480 0.231621 
0.012174 0.478329 
0.012204 0.254849 
0.026585 0.228381 
0.016396 0.105347 
0.020807 0.298668 
0.012786 0.255074 
0.010814 0.386849 
0.026781 0.156811 
0.007907 0.339163 
0.024310 0.232518 
0.012174 0.478329 
0.010430 0.345972 
0.007418 0.486082 
